KRW QC Protocol • KRWQCprotocol
…
QC0a(d_veld = veld, d_put = put, d_metingen = metingen, verbose = TRUE)
#> "Er zijn in totaal 10 bemonsterde putlocaties met XY-coordinaten afwijkend van de BRO geregistreerde putcoordinaten."
#>    putcode  X_val  Y_val  X_BRO  Y_BRO
#> 1        8 227450 456217 227450 456260
#> 2       11 242845 441905 242805 441905
#> 3       97 145365 401775 145325 401775
#> 4      100 165225 422607 165225 422650
#> 5      175 215930 551007 215930 551050
#> 6      190 176490 526350 176450 526350
#> 7      192 188865 517850 188825 517850
#> 8      194 190878 507513 190838 507513
#> 9      199 205950 513482 205950 513525
#> 10     280 133725 526970 133725 527013
#> # A tibble: 211,792 × 11
#>     qcid monsterid  jaar maand   dag filter putcode parameter detectieteken
#>    <int>     <int> <dbl> <dbl> <dbl>  <dbl>   <dbl> <chr>     <chr>        
#>  1     1         1  2014     3    31      1       1 al        ""           
#>  2     2         1  2014     3    31      1       1 as        ""           
#>  3     3         1  2014     3    31      1       1 ba        ""           
#>  4     4         1  2014     3    31      1       1 ca        ""           
#>  5     5         1  2014     3    31      1       1 cd        "<"          
#>  6     6         1  2014     3    31      1       1 cl        ""           
#>  7     7         1  2014     3    31      1       1 cod_o2     NA          
#>  8     8         1  2014     3    31      1       1 cr        ""           
#>  9     9         1  2014     3    31      1       1 cu        "<"          
#> 10    10         1  2014     3    31      1       1 doc_c     ""           
#> # … with 211,782 more rows, and 2 more variables: rapportagegrens <dbl>,
#> #   waarde <dbl>
…
